daseh_project.knit
…
dat <- read_csv("https://drive.usercontent.google.com/download?id=1V_1-6dfl88E6R_F3NbedqUCjmFabyMJ7&export=download&authuser=0&confirm=t&uuid=9b3505cb-8033-4650-be3e-24d2e914609c&at=AAINaIJgGDkjG47-KSbtWO1UTWTq:1782243211418")

## Rows: 6537 Columns: 26
## ── Column specification ────────────────────────────────────────────────────────
## Delimiter: ","
## chr (18): SERIALNO, sex, location, race_eth, age_cat, education, class, has_...
## dbl  (8): PWGTP, year, age, personal_income, household_income, property_valu...
## 
## ℹ Use `spec()` to retrieve the full column specification for this data.
## ℹ Specify the column types or set `show_col_types = FALSE` to quiet this message.

dat

## # A tibble: 6,537 × 26
##    SERIALNO      PWGTP  year   age sex    location    race_eth age_cat education
##    <chr>         <dbl> <dbl> <dbl> <chr>  <chr>       <chr>    <chr>   <chr>    
##  1 2023HU0947103    75  2023    56 Male   East Long … Latino   25 to … BA or hi…
##  2 2023HU0947228   146  2023    65 Female South Long… Latino   65 up   Less tha…
##  3 2023HU0947228   112  2023    21 Female South Long… Latino   18 to … Some Col…
##  4 2023HU0947935    37  2023    69 Male   North Long… White    65 up   BA or hi…
##  5 2023HU0949263    59  2023    65 Female North Long… Other    65 up   BA or hi…
##  6 2023HU0949393    92  2023    42 Female East Long … Asian o… 25 to … BA or hi…
##  7 2023HU0949393    85  2023    44 Male   East Long … White    25 to … Highscho…
##  8 2023HU0949393    73  2023     2 Male   East Long … Other    Under 5 Less tha…
##  9 2023HU0951288    96  2023    21 Female South Long… Other    18 to … Highscho…
## 10 2023HU0951729    68  2023    40 Female East Long … White    25 to … BA or hi…
## # ℹ 6,527 more rows
## # ℹ 17 more variables: personal_income <dbl>, household_income <dbl>,
## #   class <chr>, has_medicaid <chr>, property_value <dbl>,
## #   has_health_insurance <chr>, public_assistance_income <dbl>,
## #   has_disability <chr>, internet_access <chr>, has_food_stamps <chr>,
## #   tenure <chr>, income_to_poverty_ratio <dbl>, below_poverty_line <chr>,
## #   household <chr>, Hisp_Ethnicity <chr>, Hisp_region <chr>, …
…
## [1] "character"

#turn character columns into numeric to calculate percentages later
subdat <- subdat |> mutate(has_medicaid = if_else(has_medicaid == "Yes", 1L, 0L),
has_health_insurance = if_else(has_health_insurance == "Yes", 1L, 0L),
has_disability = if_else(has_disability == "Yes", 1L, 0L),
has_food_stamps = if_else(has_food_stamps == "Yes", 1L, 0L)
)

#public assistance column has lots of 0 and -1 which will mess with averages later, I'll replace with na and omit during calculations 
#In U.S. Census Bureau microdata a -1 is a missing data flag or a placeholder.
subdat <- subdat |> replace_with_na(replace = list(public_assistance_income = c(-1,0)))
subdat

## # A tibble: 4,227 × 26
##    SERIALNO      PWGTP  year   age sex    location    race_eth age_cat education
##    <chr>         <dbl> <dbl> <dbl> <chr>  <chr>       <chr>    <chr>   <chr>    
##  1 2023HU0947103    75  2023    56 Male   East Long … Latino   25 to … BA or hi…
##  2 2023HU0947228   146  2023    65 Female South Long… Latino   65 up   Less tha…
##  3 2023HU0947228   112  2023    21 Female South Long… Latino   18 to … Some Col…
##  4 2023HU0947935    37  2023    69 Male   North Long… White    65 up   BA or hi…
##  5 2023HU0949263    59  2023    65 Female North Long… Other    65 up   BA or hi…
##  6 2023HU0949393    92  2023    42 Female East Long … Asian o… 25 to … BA or hi…
##  7 2023HU0949393    85  2023    44 Male   East Long … White    25 to … Highscho…
##  8 2023HU0949393    73  2023     2 Male   East Long … Other    Under 5 Less tha…
##  9 2023HU0951288    96  2023    21 Female South Long… Other    18 to … Highscho…
## 10 2023HU0951729    68  2023    40 Female East Long … White    25 to … BA or hi…
## # ℹ 4,217 more rows
## # ℹ 17 more variables: personal_income <dbl>, household_income <dbl>,
## #   class <chr>, has_medicaid <int>, property_value <dbl>,
## #   has_health_insurance <int>, public_assistance_income <dbl>,
## #   has_disability <int>, internet_access <chr>, has_food_stamps <int>,
## #   tenure <chr>, income_to_poverty_ratio <dbl>, below_poverty_line <chr>,
## #   household <chr>, Hisp_Ethnicity <chr>, Hisp_region <chr>, …
…
